Epidemic Networks
…
  Run new function and review output

A <- DiseaseSpreadFUN(FullNet2, 18, 126, .1)
A

## # A tibble: 2,000 x 3
## # Groups:   Sim [?]
##      Sim  Step Number_of_Nodes
##    <dbl> <dbl>           <dbl>
##  1    1.    1.              6.
##  2    1.    2.              8.
##  3    1.    3.              9.
##  4    1.    4.             11.
##  5    1.    5.             16.
##  6    1.    6.             20.
##  7    1.    7.             26.
##  8    1.    8.             32.
##  9    1.    9.             34.
## 10    1.   10.             37.
## # ... with 1,990 more rows
…
